<?xml version="1.0" encoding="UTF-8"?>
<svg width="45px" height="52px" viewBox="0 0 45 52" version="1.1" xmlns="http://www.w3.org/2000/svg" xmlns:xlink="http://www.w3.org/1999/xlink">
    <title>Inprogress-report</title>
    <g id="Admin" stroke="none" stroke-width="1" fill="none" fill-rule="evenodd">
        <g id="Inprogress-report">
            <path d="M41,0 C43.209139,0 45,1.790861 45,4 L45,42 C45,44.209139 43.209139,46 41,46 L38,46 L38,44.7 L41,44.7 C42.4338162,44.7 43.6065953,43.5823676 43.6946881,42.1707523 L43.7,42 L43.7,4 C43.7,2.56618382 42.5823676,1.39340467 41.1707523,1.30531192 L41,1.3 L10,1.3 C8.56618382,1.3 7.39340467,2.41763237 7.30531192,3.82924775 L7.3,4 L7.3,7 L6,7 L6,4 C6,1.790861 7.790861,0 10,0 L41,0 Z" id="Combined-Shape-Copy-4" fill="#6A6A6A" fill-rule="nonzero"></path>
            <path d="M35,6 C37.209139,6 39,7.790861 39,10 L39,48 C39,50.209139 37.209139,52 35,52 L4,52 C1.790861,52 0,50.209139 0,48 L0,10 C0,7.790861 1.790861,6 4,6 L35,6 Z M35,7.3 L4,7.3 C2.56618382,7.3 1.39340467,8.41763237 1.30531192,9.82924775 L1.3,10 L1.3,48 C1.3,49.4338162 2.41763237,50.6065953 3.82924775,50.6946881 L4,50.7 L35,50.7 C36.4338162,50.7 37.6065953,49.5823676 37.6946881,48.1707523 L37.7,48 L37.7,10 C37.7,8.56618382 36.5823676,7.39340467 35.1707523,7.30531192 L35,7.3 Z" id="Rectangle-Copy-56" fill="#6A6A6A" fill-rule="nonzero"></path>
            <path d="M29.5227273,37.85 C29.8817124,37.85 30.1727273,38.1410149 30.1727273,38.5 C30.1727273,38.8263501 29.9322191,39.0965265 29.6187795,39.1429523 L29.5227273,39.15 L9.47727273,39.15 C9.11828764,39.15 8.82727273,38.8589851 8.82727273,38.5 C8.82727273,38.1736499 9.06778092,37.9034735 9.38122049,37.8570477 L9.47727273,37.85 L29.5227273,37.85 Z" id="Line-20-Copy-6" fill="#6A6A6A" fill-rule="nonzero"></path>
            <path d="M29.5227273,43.85 C29.8817124,43.85 30.1727273,44.1410149 30.1727273,44.5 C30.1727273,44.8263501 29.9322191,45.0965265 29.6187795,45.1429523 L29.5227273,45.15 L9.47727273,45.15 C9.11828764,45.15 8.82727273,44.8589851 8.82727273,44.5 C8.82727273,44.1736499 9.06778092,43.9034735 9.38122049,43.8570477 L9.47727273,43.85 L29.5227273,43.85 Z" id="Line-20-Copy-7" fill="#6A6A6A" fill-rule="nonzero"></path>
            <g id="Group-23" transform="translate(10.000000, 12.000000)">
                <g id="Group-3-Copy-2" fill="#FFC639">
                    <circle id="Oval" cx="9.5" cy="9.5" r="9.5"></circle>
                </g>
                <g id="Group-11" transform="translate(5.000000, 7.000000)" fill="#FFFFFF" fill-rule="nonzero">
                    <path d="M9,2.35 C9.35898509,2.35 9.65,2.64101491 9.65,3 C9.65,3.32635008 9.40949181,3.59652646 9.09605224,3.64295233 L9,3.65 L0,3.65 C-0.358985087,3.65 -0.65,3.35898509 -0.65,3 C-0.65,2.67364992 -0.409491808,2.40347354 -0.0960522361,2.35704767 L0,2.35 L9,2.35 Z" id="Path-5"></path>
                    <path d="M5.54038059,-0.459619408 C5.7688373,-0.688076118 6.12504434,-0.71092179 6.37905111,-0.528156421 L6.45961941,-0.459619408 L9.45961941,2.54038059 C9.7134602,2.79422138 9.7134602,3.20577862 9.45961941,3.45961941 C9.2311627,3.68807612 8.87495566,3.71092179 8.62094889,3.52815642 L8.54038059,3.45961941 L5.54038059,0.459619408 C5.2865398,0.205778618 5.2865398,-0.205778618 5.54038059,-0.459619408 Z" id="Path-5-Copy"></path>
                    <path d="M5.54038059,2.54038059 C5.7688373,2.31192388 6.12504434,2.28907821 6.37905111,2.47184358 L6.45961941,2.54038059 L9.45961941,5.54038059 C9.7134602,5.79422138 9.7134602,6.20577862 9.45961941,6.45961941 C9.2311627,6.68807612 8.87495566,6.71092179 8.62094889,6.52815642 L8.54038059,6.45961941 L5.54038059,3.45961941 C5.2865398,3.20577862 5.2865398,2.79422138 5.54038059,2.54038059 Z" id="Path-5-Copy-2" transform="translate(7.500000, 4.500000) scale(1, -1) translate(-7.500000, -4.500000) "></path>
                </g>
            </g>
        </g>
    </g>
</svg>