<?xml version="1.0" encoding="UTF-8"?>
<svg width="56px" height="59px" viewBox="0 0 56 59" version="1.1" xmlns="http://www.w3.org/2000/svg" xmlns:xlink="http://www.w3.org/1999/xlink">
    <title>Architectural-Services-icon</title>
    <g id="Icons" stroke="none" stroke-width="1" fill="none" fill-rule="evenodd">
        <g id="Artboard" transform="translate(-59.000000, -246.000000)">
            <g id="Architectural-Services-icon" transform="translate(59.000000, 246.000000)">
                <path d="M47,15 L47,16.199 L4,16.2 C2.51087667,16.2 1.2932611,17.3624629 1.20511004,18.8294318 L1.2,19 L1.2,46 C1.2,47.4891233 2.36246286,48.7067389 3.82943181,48.79489 L4,48.8 L51,48.8 C52.4891233,48.8 53.7067389,47.6375371 53.79489,46.1705682 L53.8,46 L53.8,35 L55,35 L55,46 C55,48.209139 53.209139,50 51,50 L4,50 C1.790861,50 0,48.209139 0,46 L0,19 C0,16.790861 1.790861,15 4,15 L47,15 Z" id="Combined-Shape" fill="#6A6A6A" fill-rule="nonzero"></path>
                <path d="M45.9,6.40142285 L45.9,32.6001667 L46.5,32.6001667 C48.3063989,32.6001667 49.728054,32.9111537 50.769106,33.518434 C51.6737087,34.0461189 52.4006933,34.9778737 52.9571792,36.2084097 C53.2888473,36.9418146 53.5386806,37.7333697 53.7165978,38.5256902 L53.78765,38.8602443 C53.8500379,39.1726284 53.8870005,39.4158627 53.9036437,39.5661909 L55.1,39.5001667 L55.1,13.9840534 C55.1,13.367295 54.6838966,11.3620627 54.4289527,10.8797963 C53.7715868,9.63628554 52.9567155,8.67532599 51.9827744,8.00574153 C50.4179353,6.92991463 48.5843163,6.39504965 46.4985755,6.39996762 L45.9,6.40142285 Z M47.1,7.617 L47.2273074,7.62328736 C48.7709371,7.72800412 50.1258667,8.18535404 51.3029398,8.99459184 C52.1082578,9.54824794 52.7971552,10.3606492 53.3680675,11.4406195 L53.3996113,11.5127824 C53.5688543,11.9556974 53.9,13.5769559 53.9,13.9840534 L53.9,35.396 L53.778264,35.1558154 C53.1616902,33.9843788 52.3707447,33.0634789 51.3737512,32.4818993 L51.1197359,32.3416227 C50.0833486,31.8002345 48.8031049,31.4952584 47.2811249,31.4191711 L47.1,31.412 L47.1,7.617 Z" id="Rectangle-Copy-35" fill="#6A6A6A" fill-rule="nonzero"></path>
                <path d="M15.5,40.9 C15.8313708,40.9 16.1,41.1686292 16.1,41.5 C16.1,41.7982338 15.8824104,42.0456468 15.5973231,42.092147 L15.5,42.1 L7.5,42.1 C7.16862915,42.1 6.9,41.8313708 6.9,41.5 C6.9,41.2017662 7.11758961,40.9543532 7.40267688,40.907853 L7.5,40.9 L15.5,40.9 Z" id="Line-9-Copy-4" fill="#6A6A6A" fill-rule="nonzero"></path>
                <path d="M38,40.9 C38.3313708,40.9 38.6,41.1686292 38.6,41.5 C38.6,41.7982338 38.3824104,42.0456468 38.0973231,42.092147 L38,42.1 L24,42.1 C23.6686292,42.1 23.4,41.8313708 23.4,41.5 C23.4,41.2017662 23.6175896,40.9543532 23.9026769,40.907853 L24,40.9 L38,40.9 Z" id="Line-9-Copy-5" fill="#6A6A6A" fill-rule="nonzero"></path>
                <path d="M15.5,23.4 C15.8313708,23.4 16.1,23.6686292 16.1,24 C16.1,24.2982338 15.8824104,24.5456468 15.5973231,24.592147 L15.5,24.6 L7.5,24.6 C7.16862915,24.6 6.9,24.3313708 6.9,24 C6.9,23.7017662 7.11758961,23.4543532 7.40267688,23.407853 L7.5,23.4 L15.5,23.4 Z" id="Line-9" fill="#6A6A6A" fill-rule="nonzero"></path>
                <path d="M38,23.4 C38.3313708,23.4 38.6,23.6686292 38.6,24 C38.6,24.2982338 38.3824104,24.5456468 38.0973231,24.592147 L38,24.6 L24,24.6 C23.6686292,24.6 23.4,24.3313708 23.4,24 C23.4,23.7017662 23.6175896,23.4543532 23.9026769,23.407853 L24,23.4 L38,23.4 Z" id="Line-9-Copy" fill="#6A6A6A" fill-rule="nonzero"></path>
                <path d="M22,31.9 C22.3313708,31.9 22.6,32.1686292 22.6,32.5 C22.6,32.7982338 22.3824104,33.0456468 22.0973231,33.092147 L22,33.1 L8,33.1 C7.66862915,33.1 7.4,32.8313708 7.4,32.5 C7.4,32.2017662 7.61758961,31.9543532 7.90267688,31.907853 L8,31.9 L22,31.9 Z" id="Line-9-Copy-3" fill="#6A6A6A" fill-rule="nonzero"></path>
                <path d="M38,31.9 C38.3313708,31.9 38.6,32.1686292 38.6,32.5 C38.6,32.7982338 38.3824104,33.0456468 38.0973231,33.092147 L38,33.1 L30,33.1 C29.6686292,33.1 29.4,32.8313708 29.4,32.5 C29.4,32.2017662 29.6175896,31.9543532 29.9026769,31.907853 L30,31.9 L38,31.9 Z" id="Line-9-Copy-2" fill="#6A6A6A" fill-rule="nonzero"></path>
                <path d="M39,3.55271368e-15 L39,33 L34.499,33 L34.5,30.25 C34.5,29.6027913 34.0081253,29.0704661 33.3778052,29.0064536 L33.25,29 C32.5596441,29 32,29.5596441 32,30.25 L32,30.25 L31.999,33 L28.999,33 L29,30.25 C29,29.6027913 28.5081253,29.0704661 27.8778052,29.0064536 L27.75,29 C27.0596441,29 26.5,29.5596441 26.5,30.25 L26.5,30.25 L26.499,33 L22.999,33 L23,30.25 C23,29.6027913 22.5081253,29.0704661 21.8778052,29.0064536 L21.75,29 C21.0596441,29 20.5,29.5596441 20.5,30.25 L20.5,30.25 L20.499,33 L17.499,33 L17.5,30.25 C17.5,29.6027913 17.0081253,29.0704661 16.3778052,29.0064536 L16.25,29 C15.5596441,29 15,29.5596441 15,30.25 L15,30.25 L14.999,33 L6,33 L39,3.55271368e-15 Z M32.5,15 L22.5,25 L32.5,25 L32.5,15 Z" id="Combined-Shape-Copy-3" fill="#00DFBE"></path>
                <path d="M44.1737621,52 C44.7171199,52 45.2530156,52.1265078 45.7390097,52.3695048 L49.1790054,54.0895027 C50.0992329,54.5496164 50.4722287,55.6686041 50.012115,56.5888316 C49.8018286,57.0094043 49.4402757,57.3348966 49,57.5 L45.594261,58.7771521 C45.2012913,58.9245158 44.7850208,59 44.365329,59 L3.5,59 C1.56700338,59 4.97379915e-14,57.4329966 4.97379915e-14,55.5 C4.97379915e-14,53.5670034 1.56700338,52 3.5,52 L44.1737621,52 Z M44.1737621,53 L3.5,53 C2.11928813,53 1,54.1192881 1,55.5 C1,56.8254834 2.03153594,57.9100387 3.33562431,57.9946823 L3.5,58 L44.365329,58 C44.6051529,58 44.8434127,57.9654929 45.0728384,57.8977971 L45.2431376,57.8408229 L48.6488766,56.5636708 C48.8528121,56.487195 49.0202832,56.3364271 49.1176878,56.141618 C49.3144181,55.7481574 49.1823376,55.2762503 48.825597,55.0383492 L48.7317918,54.9839299 L45.2917961,53.263932 C45.0025139,53.1192909 44.6884789,53.0324322 44.3672339,53.0074971 L44.1737621,53 Z" id="Rectangle" fill="#6A6A6A" fill-rule="nonzero"></path>
                <polygon id="Line-10" fill="#6A6A6A" fill-rule="nonzero" points="44 52 44 58 43 58 43 52"></polygon>
                <polygon id="Line-10-Copy" fill="#6A6A6A" fill-rule="nonzero" points="6.5 52 6.5 58 5.5 58 5.5 52"></polygon>
            </g>
        </g>
    </g>
</svg>