<?xml version="1.0" encoding="UTF-8"?>
<svg width="48px" height="48px" viewBox="0 0 48 48" version="1.1" xmlns="http://www.w3.org/2000/svg" xmlns:xlink="http://www.w3.org/1999/xlink">
    <title>location-icon</title>
    <g id="Icons" stroke="none" stroke-width="1" fill="none" fill-rule="evenodd">
        <g id="Artboard" transform="translate(-157.000000, -183.000000)">
            <g id="location-icon" transform="translate(157.000000, 183.000000)">
                <rect id="Rectangle-Copy-8" x="0" y="0" width="48" height="48"></rect>
                <g id="Group-11" transform="translate(8.000000, 4.000000)" fill="#00DFBE">
                    <path d="M16.6153846,-1.98951966e-13 C24.9230769,-1.98951966e-13 33.2307692,6.7668457 33.2307692,16 C33.2307692,20.8820801 32.029062,22.8982577 28.6132812,27.9750977 C25.6350098,31.7390137 23.2358398,34.5949707 17.9797363,39.3222656 C16.9115745,40.1835187 16.3600867,40.1856761 15.2937012,39.3222656 C10.3007812,34.6605225 7.70397949,31.7043457 4.57714844,27.9750977 C1.17993903,22.8940199 -7.16582349e-12,21.3190918 -7.16582349e-12,16 C-7.16582349e-12,6.37353516 8.30769231,-1.98951966e-13 16.6153846,-1.98951966e-13 Z M16.5993652,8 C13.2856567,8 10.5993652,10.6862915 10.5993652,14 C10.5993652,17.3137085 13.2856567,20 16.5993652,20 C19.9130737,20 22.5993652,17.3137085 22.5993652,14 C22.5993652,10.6862915 19.9130737,8 16.5993652,8 Z" id="Combined-Shape"></path>
                </g>
            </g>
        </g>
    </g>
</svg>