<?xml version="1.0" encoding="UTF-8"?>
<svg width="24px" height="24px" viewBox="0 0 24 24" version="1.1" xmlns="http://www.w3.org/2000/svg" xmlns:xlink="http://www.w3.org/1999/xlink">
    <title>mail-icon</title>
    <g id="Icons" stroke="none" stroke-width="1" fill="none" fill-rule="evenodd">
        <g id="Artboard" transform="translate(-419.000000, -36.000000)">
            <g id="mail-icon" transform="translate(419.000000, 36.000000)">
                <rect id="Rectangle-Copy-6" x="0" y="0" width="24" height="24"></rect>
                <g id="email-outline" opacity="0.432175409" transform="translate(2.000000, 4.000000)" fill="#00E9BB" fill-rule="nonzero">
                    <path d="M20,2 C20,0.9 19.1,0 18,0 L2,0 C0.9,0 0,0.9 0,2 L0,14 C0,15.1 0.9,16 2,16 L18,16 C19.1,16 20,15.1 20,14 L20,2 M18,2 L10,7 L2,2 L18,2 M18,14 L2,14 L2,4 L10,9 L18,4 L18,14 Z" id="Shape"></path>
                </g>
            </g>
        </g>
    </g>
</svg>