<?xml version="1.0" encoding="UTF-8"?>
<svg width="60px" height="60px" viewBox="0 0 60 60" version="1.1" xmlns="http://www.w3.org/2000/svg" xmlns:xlink="http://www.w3.org/1999/xlink">
    <title>Master-Planning-icon</title>
    <g id="Icons" stroke="none" stroke-width="1" fill="none" fill-rule="evenodd">
        <g id="Artboard" transform="translate(-54.000000, -163.000000)">
            <g id="Master-Planning-icon" transform="translate(54.000000, 163.000000)">
                <g id="Group-15">
                    <rect id="Rectangle" x="0" y="0" width="60" height="60"></rect>
                    <path d="M51,13 C53.7614237,13 56,15.2385763 56,18 L56,50 C56,52.7614237 53.7614237,55 51,55 L9,55 C6.23857625,55 4,52.7614237 4,50 L4,18 C4,15.2385763 6.23857625,13 9,13 L51,13 Z M51,14.2 L9,14.2 C6.96690176,14.2 5.30672042,15.796647 5.20494454,17.8044525 L5.2,18 L5.2,50 C5.2,52.0330982 6.79664702,53.6932796 8.8044525,53.7950555 L9,53.8 L51,53.8 C53.0330982,53.8 54.6932796,52.203353 54.7950555,50.1955475 L54.8,50 L54.8,18 C54.8,15.9669018 53.203353,14.3067204 51.1955475,14.2049445 L51,14.2 Z" id="Rectangle" fill="#6A6A6A" fill-rule="nonzero"></path>
                    <path d="M8.38583639,3.26984127 C12.3089133,3.26984127 16.2319902,6.46529619 16.2319902,10.8253968 C16.2319902,13.1308235 15.6645174,14.0829074 14.0515098,16.4803041 C12.6451038,18.2577088 11.5121625,19.6063552 9.03011358,21.8386889 C8.52570381,22.2453918 8.26527904,22.2464105 7.76170809,21.8386889 C5.40394035,19.6373102 4.17767286,18.2413379 2.70111375,16.4803041 C1.09687597,14.0809062 0.53968254,13.3371902 0.53968254,10.8253968 C0.53968254,6.2795662 4.46275946,3.26984127 8.38583639,3.26984127 Z M8.37827168,7.04761905 C6.81346489,7.04761905 5.54493834,8.31614559 5.54493834,9.88095238 C5.54493834,11.4457592 6.81346489,12.7142857 8.37827168,12.7142857 C9.94307847,12.7142857 11.211605,11.4457592 11.211605,9.88095238 C11.211605,8.31614559 9.94307847,7.04761905 8.37827168,7.04761905 Z" id="Combined-Shape" fill="#00DFBE"></path>
                    <path d="M51.8461538,24 C55.7692308,24 59.6923077,27.1954549 59.6923077,31.5555556 C59.6923077,33.8609823 59.1248348,34.8130661 57.5118273,37.2104628 C56.1054213,38.9878676 54.9724799,40.3365139 52.490431,42.5688477 C51.9860213,42.9755505 51.7255965,42.9765693 51.2220256,42.5688477 C48.8642578,40.3674689 47.6379903,38.9714966 46.1614312,37.2104628 C44.5571934,34.811065 44,34.0673489 44,31.5555556 C44,27.0097249 47.9230769,24 51.8461538,24 Z M51.8385891,27.7777778 C50.2737823,27.7777778 49.0052558,29.0463043 49.0052558,30.6111111 C49.0052558,32.1759179 50.2737823,33.4444444 51.8385891,33.4444444 C53.4033959,33.4444444 54.6719225,32.1759179 54.6719225,30.6111111 C54.6719225,29.0463043 53.4033959,27.7777778 51.8385891,27.7777778 Z" id="Combined-Shape-Copy-2" fill="#00DFBE"></path>
                    <path d="M9.57573593,42.5757359 C9.78401555,42.3674563 10.1073248,42.3443141 10.3411666,42.5063094 L10.4242641,42.5757359 L21.4242641,53.5757359 C21.6585786,53.8100505 21.6585786,54.1899495 21.4242641,54.4242641 C21.2159844,54.6325437 20.8926752,54.6556859 20.6588334,54.4936906 L20.5757359,54.4242641 L9.57573593,43.4242641 C9.34142136,43.1899495 9.34142136,42.8100505 9.57573593,42.5757359 Z" id="Line-8" fill="#6A6A6A" fill-rule="nonzero"></path>
                    <path d="M14.0757359,31.0757359 C14.2840156,30.8674563 14.6073248,30.8443141 14.8411666,31.0063094 L14.9242641,31.0757359 L37.4242641,53.5757359 C37.6585786,53.8100505 37.6585786,54.1899495 37.4242641,54.4242641 C37.2159844,54.6325437 36.8926752,54.6556859 36.6588334,54.4936906 L36.5757359,54.4242641 L14.0757359,31.9242641 C13.8414214,31.6899495 13.8414214,31.3100505 14.0757359,31.0757359 Z" id="Line-8-Copy" fill="#6A6A6A" fill-rule="nonzero"></path>
                    <path d="M17.9825773,34.137409 C18.1898877,34.3466533 18.2115287,34.6700666 18.0484496,34.9031537 L17.978638,34.985928 L5.42228987,47.4262291 C5.18689003,47.6594534 4.80699513,47.6576897 4.57377088,47.4222899 C4.36646043,47.2130456 4.34481945,46.8896323 4.50789856,46.6565451 L4.57771013,46.5737709 L17.1340583,34.1334698 C17.3694582,33.9002455 17.749353,33.9020092 17.9825773,34.137409 Z" id="Path" fill="#6A6A6A" fill-rule="nonzero"></path>
                    <path d="M50.7790401,13.5756166 C50.9911175,13.7800278 51.0202059,14.1028565 50.8625416,14.3396399 L50.7946561,14.424001 L31.0539301,34.9050784 C30.8239674,35.1436655 30.4441328,35.150657 30.2055456,34.9206943 C29.9934682,34.7162831 29.9643799,34.3934545 30.1220442,34.156671 L30.1899297,34.0723099 L49.9306557,13.5912326 C50.1606183,13.3526454 50.540453,13.3456539 50.7790401,13.5756166 Z" id="Path" fill="#6A6A6A" fill-rule="nonzero"></path>
                    <path d="M36.4408821,13.5930319 C36.6406707,13.8094697 36.6508724,14.1334456 36.4796604,14.3606258 L36.4069681,14.4408821 L23.4069681,26.4408821 C23.1634756,26.6656443 22.7838802,26.6504605 22.5591179,26.4069681 C22.3593293,26.1905303 22.3491276,25.8665544 22.5203396,25.6393742 L22.5930319,25.5591179 L35.5930319,13.5591179 C35.8365244,13.3343557 36.2161198,13.3495395 36.4408821,13.5930319 Z" id="Path" fill="#6A6A6A" fill-rule="nonzero"></path>
                    <path d="M26.2878942,30.8337025 C26.4913002,31.0467442 26.5069575,31.3705023 26.3395964,31.6005343 L26.2682663,31.6820036 L20.5275403,37.1630809 C20.2878683,37.3919127 19.908071,37.383125 19.6792392,37.1434531 C19.4758331,36.9304113 19.4601758,36.6066532 19.6275369,36.3766212 L19.6988671,36.295152 L25.4395931,30.8140746 C25.679265,30.5852428 26.0590624,30.5940305 26.2878942,30.8337025 Z" id="Path" fill="#6A6A6A" fill-rule="nonzero"></path>
                    <path d="M35.0778466,38.4586181 C35.277767,38.6749342 35.2881659,38.9989038 35.1170922,39.2261883 L35.0444488,39.3064887 L28.4072364,45.4406342 C28.1638808,45.6655447 27.7842762,45.650592 27.5593658,45.4072364 C27.3594454,45.1909203 27.3490465,44.8669507 27.5201202,44.6396662 L27.5927636,44.5593658 L34.229976,38.4252203 C34.4733316,38.2003098 34.8529362,38.2152626 35.0778466,38.4586181 Z" id="Path" fill="#6A6A6A" fill-rule="nonzero"></path>
                    <path d="M24.4242641,40.5757359 C24.6325437,40.7840156 24.6556859,41.1073248 24.4936906,41.3411666 L24.4242641,41.4242641 L16.9242641,48.9242641 C16.6899495,49.1585786 16.3100505,49.1585786 16.0757359,48.9242641 C15.8674563,48.7159844 15.8443141,48.3926752 16.0063094,48.1588334 L16.0757359,48.0757359 L23.5757359,40.5757359 C23.8100505,40.3414214 24.1899495,40.3414214 24.4242641,40.5757359 Z" id="Path" fill="#6A6A6A" fill-rule="nonzero"></path>
                    <path d="M43.1693312,41.7839395 C43.3745922,41.9951947 43.3930796,42.3188035 43.2277362,42.55029 L43.1571211,42.6323798 L34.2125028,51.3232023 C33.9748408,51.5541209 33.5949811,51.5486543 33.3640625,51.3109922 C33.1588016,51.0997371 33.1403141,50.7761282 33.3056575,50.5446418 L33.3762726,50.4625519 L42.3208909,41.7717294 C42.558553,41.5408108 42.9384126,41.5462775 43.1693312,41.7839395 Z" id="Path" fill="#6A6A6A" fill-rule="nonzero"></path>
                    <path d="M34.09192,15.0707591 C34.3037797,14.8661222 34.6274416,14.8485894 34.8584394,15.0146149 L34.9403206,15.0854718 L42.1298194,22.5287278 C42.360036,22.76707 42.3534489,23.1469118 42.1151067,23.3771284 C41.903247,23.5817653 41.5795851,23.5992981 41.3485873,23.4332726 L41.2667061,23.3624157 L34.0772073,15.9191597 C33.8469907,15.6808175 33.8535778,15.3009757 34.09192,15.0707591 Z" id="Path" fill="#6A6A6A" fill-rule="nonzero"></path>
                    <path d="M36.5947742,28.557516 C36.8119983,28.3585827 37.1360119,28.3496591 37.3625151,28.5217659 L37.442484,28.5947742 L39.5618632,30.9090182 C39.7856633,31.1533953 39.7689822,31.5329279 39.5246051,31.7567279 C39.3073809,31.9556613 38.9833673,31.9645849 38.7568642,31.7924781 L38.6768953,31.7194697 L36.557516,29.4052258 C36.333716,29.1608486 36.3503971,28.7813161 36.5947742,28.557516 Z" id="Path" fill="#6A6A6A" fill-rule="nonzero"></path>
                    <path d="M19.3257359,23.3257359 C19.5340156,23.1174563 19.8573248,23.0943141 20.0911666,23.2563094 L20.1742641,23.3257359 L50.4242641,53.5757359 C50.6585786,53.8100505 50.6585786,54.1899495 50.4242641,54.4242641 C50.2159844,54.6325437 49.8926752,54.6556859 49.6588334,54.4936906 L49.5757359,54.4242641 L19.3257359,24.1742641 C19.0914214,23.9399495 19.0914214,23.5600505 19.3257359,23.3257359 Z" id="Line-8-Copy-2" fill="#6A6A6A" fill-rule="nonzero"></path>
                </g>
            </g>
        </g>
    </g>
</svg>