<?xml version="1.0" encoding="UTF-8"?>
<svg width="21px" height="19px" viewBox="0 0 21 19" version="1.1" xmlns="http://www.w3.org/2000/svg" xmlns:xlink="http://www.w3.org/1999/xlink">
    <title>twitter-color</title>
    <g id="Icons" stroke="none" stroke-width="1" fill="none" fill-rule="evenodd">
        <g id="Artboard" transform="translate(-310.000000, -132.000000)">
            <g id="twitter-color" transform="translate(310.307692, 132.000000)">
                <rect id="Rectangle-Copy-25" x="0" y="0" width="19.3846154" height="19"></rect>
                <g id="twitter-(1)" transform="translate(0.807692, 3.166667)" fill="#1CA2F1" fill-rule="nonzero">
                    <path d="M17.3330769,1.58333333 C16.7111538,1.86041667 16.0407692,2.0425 15.3461538,2.12958333 C16.0569231,1.71 16.6061538,1.045 16.8646154,0.245416667 C16.1942308,0.64125 15.4511538,0.918333333 14.6676923,1.07666667 C14.0296154,0.395833333 13.1330769,0 12.1153846,0 C10.2173077,0 8.66653846,1.52 8.66653846,3.39625 C8.66653846,3.66541667 8.69884615,3.92666667 8.75538462,4.17208333 C5.88,4.02958333 3.31961538,2.67583333 1.61538462,0.625416667 C1.31653846,1.12416667 1.14692308,1.71 1.14692308,2.3275 C1.14692308,3.50708333 1.75269231,4.55208333 2.68961538,5.14583333 C2.11615385,5.14583333 1.58307692,4.9875 1.11461538,4.75 C1.11461538,4.75 1.11461538,4.75 1.11461538,4.77375 C1.11461538,6.42041667 2.31,7.79791667 3.89307692,8.10666667 C3.60230769,8.18583333 3.29538462,8.22541667 2.98038462,8.22541667 C2.76230769,8.22541667 2.54423077,8.20166667 2.33423077,8.16208333 C2.77038462,9.5 4.03846154,10.4975 5.565,10.52125 C4.38576923,11.4395833 2.89153846,11.9779167 1.26,11.9779167 C0.985384615,11.9779167 0.710769231,11.9620833 0.436153846,11.9304167 C1.97076923,12.89625 3.79615385,13.4583333 5.75076923,13.4583333 C12.1153846,13.4583333 15.6126923,8.28083333 15.6126923,3.79208333 C15.6126923,3.64166667 15.6126923,3.49916667 15.6046154,3.34875 C16.2830769,2.87375 16.8646154,2.27208333 17.3330769,1.58333333 Z" id="Path"></path>
                </g>
            </g>
        </g>
    </g>
</svg>