<?xml version="1.0" encoding="UTF-8"?>
<svg width="16px" height="16px" viewBox="0 0 16 16" version="1.1" xmlns="http://www.w3.org/2000/svg" xmlns:xlink="http://www.w3.org/1999/xlink">
    <title>Checbox-color</title>
    <g id="Admin" stroke="none" stroke-width="1" fill="none" fill-rule="evenodd">
        <g id="Checbox-color" fill="#00DFBE" fill-rule="nonzero">
            <path d="M6.4,12 L2.4,8 L3.528,6.864 L6.4,9.736 L12.472,3.664 L13.6,4.8 M8,-3.55271368e-16 C3.581722,-3.55271368e-16 -3.55271368e-16,3.581722 -3.55271368e-16,8 C-3.55271368e-16,10.1217319 0.842854723,12.1565632 2.34314575,13.6568542 C3.84343678,15.1571453 5.87826808,16 8,16 C10.1217319,16 12.1565632,15.1571453 13.6568542,13.6568542 C15.1571453,12.1565632 16,10.1217319 16,8 C16,5.87826808 15.1571453,3.84343678 13.6568542,2.34314575 C12.1565632,0.842854723 10.1217319,-3.55271368e-16 8,-3.55271368e-16 Z" id="Shape"></path>
        </g>
    </g>
</svg>